{
	"info": {
		"_postman_id": "04bcf475-69ab-416a-9de2-4f585ab7e92b",
		"name": "zemoga-poll-api",
		"schema": "https://schema.getpostman.com/json/collection/v2.1.0/collection.json"
	},
	"item": [
		{
			"name": "Get Me",
			"request": {
				"method": "GET",
				"header": [
					{
						"key": "token",
						"value": "eyJhbGciOiJIUzI1NiIsInR5cCI6IkpXVCJ9.eyJlbWFpbCI6ImVkaXNvbmdhQGdtYWlsLmNvbSIsImlhdCI6MTU0MDc1MzEzNSwiZXhwIjoxNTQwNzU2NzM1fQ.Dj3fHqnp_ec87HDjj-glsjQEboqtMPPTJI-x1VALK3A",
						"type": "text"
					}
				],
				"body": {
					"mode": "raw",
					"raw": "{\n\n}"
				},
				"url": {
					"raw": "http://localhost:4000/api/v1/users/me",
					"protocol": "http",
					"host": [
						"localhost"
					],
					"port": "4000",
					"path": [
						"api",
						"v1",
						"users",
						"me"
					]
				}
			},
			"response": []
		},
		{
			"name": "Registration",
			"request": {
				"method": "POST",
				"header": [
					{
						"key": "Content-Type",
						"name": "Content-Type",
						"value": "application/json",
						"type": "text"
					}
				],
				"body": {
					"mode": "raw",
					"raw": "{\n\t\"email\":\"edisonga@gmail.com\",\n\t\"password\": \"Iwanttoworkinzemoga1\"\n}"
				},
				"url": {
					"raw": "http://localhost:4000/api/v1/users",
					"protocol": "http",
					"host": [
						"localhost"
					],
					"port": "4000",
					"path": [
						"api",
						"v1",
						"users"
					]
				}
			},
			"response": []
		},
		{
			"name": "Login",
			"request": {
				"method": "POST",
				"header": [
					{
						"key": "Content-Type",
						"name": "Content-Type",
						"value": "application/json",
						"type": "text"
					}
				],
				"body": {
					"mode": "raw",
					"raw": "{\n\t\"email\":\"edisonga@gmail.com\",\n\t\"password\": \"Iwanttoworkinzemoga1\"\n}"
				},
				"url": {
					"raw": "http://localhost:4000/api/v1/users/login",
					"protocol": "http",
					"host": [
						"localhost"
					],
					"port": "4000",
					"path": [
						"api",
						"v1",
						"users",
						"login"
					]
				}
			},
			"response": []
		},
		{
			"name": "Poll Create ",
			"request": {
				"method": "POST",
				"header": [
					{
						"key": "Content-Type",
						"name": "Content-Type",
						"value": "application/json",
						"type": "text"
					},
					{
						"key": "token",
						"value": "eyJhbGciOiJIUzI1NiIsInR5cCI6IkpXVCJ9.eyJlbWFpbCI6ImVkaXNvbmdhQGdtYWlsLmNvbSIsImlhdCI6MTU0MDc0MzcxMCwiZXhwIjoxNTQwNzQ3MzEwfQ.xyWqnR5X4AMTOL9JqTpNIqHfC7Ed1X4xFtiQQdQWHqk",
						"type": "text"
					}
				],
				"body": {
					"mode": "raw",
					"raw": "{\n\t\"title\": \"Kanye West\",\n\t\"description\": \"What is wrong with this guy?\"\n}"
				},
				"url": {
					"raw": "http://localhost:4000/api/v1/poll",
					"protocol": "http",
					"host": [
						"localhost"
					],
					"port": "4000",
					"path": [
						"api",
						"v1",
						"poll"
					]
				}
			},
			"response": []
		},
		{
			"name": "Get Polls",
			"request": {
				"method": "GET",
				"header": [
					{
						"key": "token",
						"value": "eyJhbGciOiJIUzI1NiIsInR5cCI6IkpXVCJ9.eyJlbWFpbCI6ImVkaXNvbmdhQGdtYWlsLmNvbSIsImlhdCI6MTU0MDc0MzcxMCwiZXhwIjoxNTQwNzQ3MzEwfQ.xyWqnR5X4AMTOL9JqTpNIqHfC7Ed1X4xFtiQQdQWHqk",
						"type": "text"
					}
				],
				"body": {
					"mode": "raw",
					"raw": ""
				},
				"url": {
					"raw": "http://localhost:4000/api/v1/poll",
					"protocol": "http",
					"host": [
						"localhost"
					],
					"port": "4000",
					"path": [
						"api",
						"v1",
						"poll"
					],
					"query": [
						{
							"key": "token",
							"value": "eyJhbGciOiJIUzI1NiIsInR5cCI6IkpXVCJ9.eyJlbWFpbCI6ImVkaXNvbmdhQGdtYWlsLmNvbSIsImlhdCI6MTU0MDY3NDAxMSwiZXhwIjoxNTQwNjc3NjExfQ.kJRy7yNQdXGk3kw2i31FaVvKI2ctr_mYbjNwBjHT3j0",
							"disabled": true
						}
					]
				}
			},
			"response": []
		},
		{
			"name": "Get one Poll",
			"request": {
				"method": "GET",
				"header": [
					{
						"key": "token",
						"value": "eyJhbGciOiJIUzI1NiIsInR5cCI6IkpXVCJ9.eyJlbWFpbCI6ImVkaXNvbmdhQGdtYWlsLmNvbSIsImlhdCI6MTU0MDc0MzcxMCwiZXhwIjoxNTQwNzQ3MzEwfQ.xyWqnR5X4AMTOL9JqTpNIqHfC7Ed1X4xFtiQQdQWHqk",
						"type": "text"
					}
				],
				"body": {
					"mode": "raw",
					"raw": ""
				},
				"url": {
					"raw": "http://localhost:3000/api/v1/poll/5bd5e22e7f9befd7aab6fcdb",
					"protocol": "http",
					"host": [
						"localhost"
					],
					"port": "3000",
					"path": [
						"api",
						"v1",
						"poll",
						"5bd5e22e7f9befd7aab6fcdb"
					],
					"query": [
						{
							"key": "token",
							"value": "eyJhbGciOiJIUzI1NiIsInR5cCI6IkpXVCJ9.eyJlbWFpbCI6ImVkaXNvbmdhQGdtYWlsLmNvbSIsImlhdCI6MTU0MDY3NDAxMSwiZXhwIjoxNTQwNjc3NjExfQ.kJRy7yNQdXGk3kw2i31FaVvKI2ctr_mYbjNwBjHT3j0",
							"disabled": true
						}
					]
				}
			},
			"response": []
		},
		{
			"name": "Vote",
			"request": {
				"method": "POST",
				"header": [
					{
						"key": "Content-Type",
						"name": "Content-Type",
						"value": "application/json",
						"type": "text"
					},
					{
						"key": "token",
						"value": "eyJhbGciOiJIUzI1NiIsInR5cCI6IkpXVCJ9.eyJlbWFpbCI6ImVkaXNvbmdhQGdtYWlsLmNvbSIsImlhdCI6MTU0MDc0MzcxMCwiZXhwIjoxNTQwNzQ3MzEwfQ.xyWqnR5X4AMTOL9JqTpNIqHfC7Ed1X4xFtiQQdQWHqk",
						"type": "text"
					}
				],
				"body": {
					"mode": "raw",
					"raw": "{\n\t\"type\":\"up\",\n\t\"id\": \"5bd5e22e7f9befd7aab6fcdb\"\n}"
				},
				"url": {
					"raw": "http://localhost:4000/api/v1/poll/vote",
					"protocol": "http",
					"host": [
						"localhost"
					],
					"port": "4000",
					"path": [
						"api",
						"v1",
						"poll",
						"vote"
					]
				}
			},
			"response": []
		},
		{
			"name": "Check ability to vote",
			"request": {
				"method": "GET",
				"header": [
					{
						"key": "token",
						"value": "eyJhbGciOiJIUzI1NiIsInR5cCI6IkpXVCJ9.eyJlbWFpbCI6ImVkaXNvbmdhQGdtYWlsLmNvbSIsImlhdCI6MTU0MDY4OTc2OCwiZXhwIjoxNTQwNjkzMzY4fQ.qR4OHDfDLut97WUB-ZC0weuhMUd9wsetbwnHf1RRYtI",
						"type": "text"
					}
				],
				"body": {
					"mode": "raw",
					"raw": ""
				},
				"url": {
					"raw": "http://localhost:4000/api/v1/poll/5bd4e21395f7c1d88ac96448/check",
					"protocol": "http",
					"host": [
						"localhost"
					],
					"port": "4000",
					"path": [
						"api",
						"v1",
						"poll",
						"5bd4e21395f7c1d88ac96448",
						"check"
					]
				}
			},
			"response": []
		},
		{
			"name": "Get Polls with My Votes",
			"request": {
				"method": "GET",
				"header": [
					{
						"key": "token",
						"value": "eyJhbGciOiJIUzI1NiIsInR5cCI6IkpXVCJ9.eyJlbWFpbCI6ImVkaXNvbmdhQGdtYWlsLmNvbSIsImlhdCI6MTU0MDc4NDM1MCwiZXhwIjoxNTQwNzg3OTUwfQ.lNrRrm_AniUCbraTK_dTgFhqTCqK41fe7OPE_-kYQO8",
						"type": "text"
					}
				],
				"body": {
					"mode": "raw",
					"raw": ""
				},
				"url": {
					"raw": "http://localhost:4000/api/v1/poll/my-votes",
					"protocol": "http",
					"host": [
						"localhost"
					],
					"port": "4000",
					"path": [
						"api",
						"v1",
						"poll",
						"my-votes"
					]
				}
			},
			"response": []
		}
	]
}